Session 4: Homework 2
…
You have two objectives in this section:

Select the year and the twelve month variables from the weather dataset. We do not need the others (J-D, D-N, DJF, etc.) for this assignment. Hint: use select() function.

Convert the dataframe from wide to long format. Hint: use gather() or pivot_longer() function. Name the new dataframe as tidyweather, name the variable containing the name of the month as month, and the temperature deviation values as delta.

tidyweather <- weather %>%
  select(1:13) %>% 
  pivot_longer(cols = 2:13,
               names_to = "Month",
               values_to = "delta")

tidyweather

## # A tibble: 1,680 x 3
##     Year Month delta
##    <dbl> <chr> <dbl>
##  1  1880 Jan   -0.54
##  2  1880 Feb   -0.38
##  3  1880 Mar   -0.26
##  4  1880 Apr   -0.37
##  5  1880 May   -0.11
##  6  1880 Jun   -0.22
##  7  1880 Jul   -0.23
##  8  1880 Aug   -0.24
##  9  1880 Sep   -0.26
## 10  1880 Oct   -0.32
## # ... with 1,670 more rows
…
library(tidyverse)
library(moderndive)
library(infer)

comparison2<-subset(comparison,comparison$interval=="2011-present")

bootstrap_distribution <-comparison2 %>% 
  specify(response = delta) %>% 
  generate(reps = 1000, type = "bootstrap") %>% 
  calculate(stat = "mean")
bootstrap_distribution

## # A tibble: 1,000 x 2
##    replicate  stat
##        <int> <dbl>
##  1         1 0.961
##  2         2 0.927
##  3         3 0.961
##  4         4 0.970
##  5         5 0.966
##  6         6 0.914
##  7         7 1.01 
##  8         8 0.965
##  9         9 0.990
## 10        10 0.977
## # ... with 990 more rows
…
