Session 6: Homework 3
…
colnames(GDP_calc) = c("country", "years", "C","G","I","X","IM","GDP") 

GDP_calc <- GDP_calc %>% 
  mutate(NE = X - IM, calculate = C+G+I+NE) %>% 
  select(country,years,C,G,I,-X,-IM,NE,GDP,calculate) %>% 
  mutate(diff = ((GDP-calculate)/GDP)*100) #%>% 
    #mutate(diff = diff/1e9) 
GDP_calc

## # A tibble: 10,340 x 9
##    country     years     C     G     I      NE   GDP calculate  diff
##    <chr>       <chr> <dbl> <dbl> <dbl>   <dbl> <dbl>     <dbl> <dbl>
##  1 Afghanistan 1970   5.07 0.372 0.985 -0.0717 10.7       6.35  40.8
##  2 Afghanistan 1971   4.84 0.382 1.05  -0.123  10.7       6.15  42.5
##  3 Afghanistan 1972   4.70 0.402 0.919 -0.0863  8.94      5.94  33.6
##  4 Afghanistan 1973   5.21 0.421 0.919 -0.0599  9.20      6.49  29.4
##  5 Afghanistan 1974   5.59 0.431 1.18  -0.108   9.70      7.09  26.9
##  6 Afghanistan 1975   5.65 0.598 1.37  -0.143  10.3       7.47  27.5
##  7 Afghanistan 1976   5.68 0.627 2.03  -0.148  10.9       8.20  24.6
##  8 Afghanistan 1977   6.15 0.676 1.92  -0.248  10.3       8.49  17.7
##  9 Afghanistan 1978   6.30 0.725 2.22  -0.271  11.1       8.98  19.0
## 10 Afghanistan 1979   6.15 0.708 2.07  -0.253  10.8       8.68  19.6
## # ... with 10,330 more rows
…
