…
This density plots show us two things in general:

In which region do the most common returns lie (i.e. where is the mean)

How widely spread are the returns (i.e. what is the variance)

These two points can be then be used to assess the overall performance of the stock over the past years and the risk associated with them.

Looking only at the plots we can see that DOW and AAPL are very widely spread and are therefore the riskiest stocks. On the other side of the spectrum we have the SPY ETF, which is to be expected as its an index fund that is well diversified.

We will now create the typical risk vs return plot, were we plot expected monthly return (mean) of a stock on the Y axis and the risk (standard deviation) in the X-axis.

monthly_returns_17_to_20

## # A tibble: 31 x 6
##    symbol mean_monthly_re… median_monthly_… std_monthly_ret… min_monthly_ret…
##    <chr>             <dbl>            <dbl>            <dbl>            <dbl>
##  1 AAPL             0.0387           0.0513           0.0873          -0.181 
##  2 CRM              0.0350           0.0403           0.0850          -0.155 
##  3 MSFT             0.0327           0.0288           0.0503          -0.0840
##  4 V                0.0253           0.0281           0.0520          -0.114 
##  5 NKE              0.0213           0.0271           0.0672          -0.119 
##  6 HD               0.0213           0.0252           0.0626          -0.151 
##  7 WMT              0.0196           0.0257           0.0535          -0.156 
##  8 UNH              0.0186           0.0211           0.0637          -0.115 
##  9 AMGN             0.0171           0.0235           0.0664          -0.104 
## 10 MCD              0.0164           0.0157           0.0534          -0.148 
## # … with 21 more rows, and 1 more variable: max_monthly_returns <dbl>
…
